{
  "app":"Dictionary",
  "version":"1.0",
  "name": "DataDictionary",
  "env":"STAGE",               
  "port":59000 ,               
  "DEBUG":false,
  "backupPath":"/tmp/dict/backup/",
  "exportPath":"/tmp/dict/export/",
  "importPath":"/tmp/dict/export/",  
  "loadfilePath":"/tmp/dict/files/",
  "dict":{
      "db":"sqlite",
      "sqlite":{
          "schema":"dict.db",
          "table":"dict",
          "Pooling":true
      },
      "redis":{"host":"http://192.168.180.141","auth":"nyechealth","port":"6379","options":{"no_ready_check":"true"}},      
      "mysql":{
        "host":"localhost",
        "user":"root",
        "password":"EndorKroner#1",
        "port":"3306",
        "typeCast":true,
        "database":"dict",
        "connectionLimit" : 10,
        "queueLimit": 0,
        "waitForConnection": true
        },
      "mssql":{
        "user":"fhiruser"
        ,"password": "fhiruser"
        ,"server": "192.168.130.109" 
        ,"database": "FHIR" 
        ,"connectTimeout":180000
        ,"requestTimeout":180000
        ,"pool": {
            "max": 10,
            "min": 0,
            "idleTimeoutMillis": 180000
        }        
      }           
  }    
}






